{
  "basic_service_configs": [
    {
      "name": "order-service",
      "server": {
        "instances": [
          {
            "label": "public",
            "port": "4910"
          },
          {
            "label": "private",
            "port": "5010"
          }
        ],
        "logging_file_path": "./logs",
        "worker": {
          "messaging-worker": {
            "http": {
              "port": "5011"
            }
          }
        }
      }
    }
  ],
  "config_db": {
    "database": "gbrconfigs",
    "host": "localhost",
    "port": "26257",
    "user": "ecomdba"
  },
  "schema_version": "v4.0.0",
  "tenant_id": "GBR",
  "tenant_level_config": {
    "allowed_locales": [
      "en-uk",
      "en-us"
    ],
    "channel": {
      "0": {
        "id": 0,
        "code": "ESTORE",
        "fulfiller": "Samsung",
        "gerp_config": {
          "storage_locations": [
            {
              "index": 0,
              "is_physical_store": false,
              "plant_description": "plant description",
              "plant_id": "S451",
              "storage_location_description": "storage location description",
              "storage_location_id": "WCOE"
            },
            {
              "index": 1,
              "is_physical_store": false,
              "plant_description": "plant description",
              "plant_id": "S451",
              "storage_location_description": "storage location description",
              "storage_location_id": "WCOA"
            },
            {
              "index": 2,
              "is_physical_store": false,
              "plant_description": "plant description",
              "plant_id": "S451",
              "storage_location_description": "storage location description",
              "storage_location_id": "WCOW"
            }
          ]
        }
      },
      "1": {
        "id": 1,
        "code": "SELFRIDGES",
        "fulfiller": "Samsung",
        "gerp_config": {
          "storage_locations": [
            {
              "index": 0,
              "is_physical_store": false,
              "plant_description": "plant description",
              "plant_id": "S451",
              "storage_location_description": "storage location description",
              "storage_location_id": "WCYS"
            }
          ]
        }
      },
      "2": {
        "id": 2,
        "code": "KINGCROSS",
        "fulfiller": "Samsung",
        "gerp_config": {
          "storage_locations": [
            {
              "index": 0,
              "is_physical_store": false,
              "plant_description": "plant description",
              "plant_id": "S451",
              "storage_location_description": "storage location description",
              "storage_location_id": "WCYS"
            }
          ]
        }
      },
      "3": {
        "id": 3,
        "code": "EXTENDEDAISLE",
        "fulfiller": "Samsung",
        "gerp_config": {
          "storage_locations": []
        }
      },
      "4": {
        "id": 4,
        "code": "EBAY",
        "fulfiller": "Samsung",
        "gerp_config": {
          "storage_locations": []
        }
      },
      "5": {
        "id": 5,
        "code": "AMAZON",
        "fulfiller": "Samsung",
        "gerp_config": {
          "storage_locations": []
        }
      }
    },
    "default_currency": "GBR",
    "default_locale": "en_uk",
    "service_nginx_base_url": "http://gbr-qa1-nginx"
  }
}