{
  "basic_service_configs": [
    {
      "name": "order-service",
      "server": {
        "instances": [
          {
            "label": "public",
            "port": "4910"
          },
          {
            "label": "private",
            "port": "5010"
          }
        ],
        "logging_file_path": "/var/log/services/dev/",
        "worker": {
          "messaging-worker": {
            "http": {
              "port": "5011"
            }
          }
        }
      }
    }
  ],
  "config_db": {
    "database": "svk_configs",
    "host": "qa-cdb-lb",
    "port": "26257",
    "ssl": {
      "cert": "/certs/client.ecomdba_svk.crt",
      "key": "/certs/client.ecomdba_svk.key",
      "rejectUnauthorized": false
    },
    "user": "ecomdba_svk"
  },
  "id": "e17be6e7-a944-43e3-addf-81551f45e605",
  "schema_version": "v4.0.0",
  "tenant_id": "SVK",
  "tenant_level_config": {
    "allowed_locales": [
      "en-us",
      "en-us"
    ],
    "default_currency": "RON",
    "default_locale": "en-us",
    "service_nginx_base_url": "http://svk-qa1-nginx"
  }
}